Data analysis with R
…
data_notame <- data_notame %>%
  tibble::rownames_to_column() %>% # change samples from rownames to its own column
  row_to_names(row_number = 1) # change the feature IDs (mz_rt) from first row obs into column names

# change to results to numeric
# it is important that the first row of data has the row number 2
# i don't know why this is but save yourself all the time maria/jess spent figuring out
# why this wasn't working
data_notame <- data_notame %>%
  mutate(across(-mz_rt, as.numeric))

tibble(data_notame)

# A tibble: 42 × 2,410
   mz_rt    100.112032546963_2.7…¹ 101.070926284391_0.6…² 102.054957817964_0.6…³
   <chr>                     <dbl>                  <dbl>                  <dbl>
 1 HATS_40…                 26623.                105494.                413981.
 2 HATS_40…                 45481.                104196.                413246.
 3 HATS_40…                 43958.                104900.                410671.
 4 HATS_40…                 47214.                 90222.                422118.
 5 HATS_40…                 46942.                115546.                379500.
 6 HATS_40…                 32219.                 93990.                449261.
 7 HATS_40…                 31184.                 95570.                433929.
 8 HATS_40…                 35304.                115282.                332572.
 9 HATS_41…                 45864.                101472.                392594 
10 HATS_40…                 23644.                 97028.                390017.
# ℹ 32 more rows
# ℹ abbreviated names: ¹​`100.112032546963_2.7774892`,
#   ²​`101.070926284391_0.6108881`, ³​`102.054957817964_0.641104`
# ℹ 2,406 more variables: `103.054224658561_2.5438855` <dbl>,
#   `104.052815474906_1.065307` <dbl>, `104.059264569687_0.6302757` <dbl>,
#   `104.070845078818_0.6292385` <dbl>, `104.107425371357_0.5997596` <dbl>,
#   `104.124821538078_0.6135892` <dbl>, `104.130633537458_0.60107374` <dbl>, …
…
Assessing data quality

Let’s make sure that our data is of good quality.

Untransformed data

First we are going to convert the type of some of the columns to match what we want (e.g., run order converted to numeric, species to factor)

tibble(metab_imputed_clustered_long)

# A tibble: 100,716 × 9
   sample_name  sample_or_qc tomato rep_or_plot run_order    mz    rt mz_rt     
   <chr>        <fct>        <fct>  <chr>           <dbl> <dbl> <dbl> <chr>     
 1 HATS_402_041 Sample       HATS   402                41  100. 2.78  100.11203…
 2 HATS_402_041 Sample       HATS   402                41  101. 0.611 101.07092…
 3 HATS_402_041 Sample       HATS   402                41  102. 0.641 102.05495…
 4 HATS_402_041 Sample       HATS   402                41  103. 2.54  103.05422…
 5 HATS_402_041 Sample       HATS   402                41  104. 1.07  104.05281…
 6 HATS_402_041 Sample       HATS   402                41  104. 0.630 104.05926…
 7 HATS_402_041 Sample       HATS   402                41  104. 0.629 104.07084…
 8 HATS_402_041 Sample       HATS   402                41  104. 0.600 104.10742…
 9 HATS_402_041 Sample       HATS   402                41  104. 0.614 104.12482…
10 HATS_402_041 Sample       HATS   402                41  104. 0.601 104.13063…
# ℹ 100,706 more rows
# ℹ 1 more variable: rel_abund <dbl>

# make run_order numeric
metab_imputed_clustered_long$run_order <- as.numeric(metab_imputed_clustered_long$run_order)

# make treatment and sample_or_qc a factor (i.e., categorical)
metab_imputed_clustered_long$tomato <- as.factor(metab_imputed_clustered_long$tomato)
metab_imputed_clustered_long$sample_or_qc <- as.factor(metab_imputed_clustered_long$sample_or_qc)

# did it work?
tibble(metab_imputed_clustered_long)

# A tibble: 100,716 × 9
   sample_name  sample_or_qc tomato rep_or_plot run_order    mz    rt mz_rt     
   <chr>        <fct>        <fct>  <chr>           <dbl> <dbl> <dbl> <chr>     
 1 HATS_402_041 Sample       HATS   402                41  100. 2.78  100.11203…
 2 HATS_402_041 Sample       HATS   402                41  101. 0.611 101.07092…
 3 HATS_402_041 Sample       HATS   402                41  102. 0.641 102.05495…
 4 HATS_402_041 Sample       HATS   402                41  103. 2.54  103.05422…
 5 HATS_402_041 Sample       HATS   402                41  104. 1.07  104.05281…
 6 HATS_402_041 Sample       HATS   402                41  104. 0.630 104.05926…
 7 HATS_402_041 Sample       HATS   402                41  104. 0.629 104.07084…
 8 HATS_402_041 Sample       HATS   402                41  104. 0.600 104.10742…
 9 HATS_402_041 Sample       HATS   402                41  104. 0.614 104.12482…
10 HATS_402_041 Sample       HATS   402                41  104. 0.601 104.13063…
# ℹ 100,706 more rows
# ℹ 1 more variable: rel_abund <dbl>
…
